Software dependancy analysis
…
interval_between_major_versions_only %>% 
  filter(date >= "2018-01-01") %>%
  filter(date < "2020-01-01") %>%
  summarise(
    number_of_major_versions = n(), 
    median_time = median(days_until_next_major_version),
    average_time = mean(days_until_next_major_version),
    standard_deviation = sd(days_until_next_major_version)
  ) 

## # A tibble: 1 x 4
##   number_of_major_versions median_time average_time standard_deviation
##                      <int>       <dbl>        <dbl>              <dbl>
## 1                       91           4         7.96               10.4

TIMELINE

##         date   package_name version          time_stamp year month  weekday
## 1 2018-01-23    @lingui/cli   2.0.0 2018-01-23 08:05:14 2018     1    mardi
## 2 2018-01-23 @lingui/loader   2.0.0 2018-01-23 08:05:25 2018     1    mardi
## 3 2018-01-23  @lingui/react   2.0.0 2018-01-23 08:05:27 2018     1    mardi
## 4 2018-01-28       d3-scale   2.0.0 2018-01-28 19:02:49 2018     1 dimanche
## 5 2018-01-29         dotenv   5.0.0 2018-01-29 23:15:10 2018     1    lundi
##   major minor patch prerelease build        major_version
## 1     2     0     0                     @lingui/cli 2.0.0
## 2     2     0     0                  @lingui/loader 2.0.0
## 3     2     0     0                   @lingui/react 2.0.0
## 4     2     0     0                        d3-scale 2.0.0
## 5     5     0     0                          dotenv 5.0.0
##   days_until_next_major_version position direction month_count text_position
## 1                             0     0.25         1           1          0.30
## 2                             0     0.25         1           2          0.35
## 3                             5     0.25         1           3          0.40
## 4                             1    -0.25        -1           1         -0.30
## 5                             6     1.25         1           1          1.30
##  [ reached 'max' / getOption("max.print") -- omitted 1 rows ]
…
